<svg xmlns="http://www.w3.org/2000/svg" width="37.73" height="42.006" viewBox="0 0 37.73 42.006">
  <g id="author-sign" transform="translate(-49.06)">
    <path id="Path_945" data-name="Path 945" d="M107.224,849.029l-.446.08c-10.059,1.8-11.91,2.112-12.117,2.137a2.228,2.228,0,0,1-1.132-.089.668.668,0,0,1-.281-.2,1.8,1.8,0,0,1,.154-.337c.053-.1.112-.21.164-.329a1.631,1.631,0,0,0-.632-2.091,3.289,3.289,0,0,0-2.164-.45c-.53.044-9.813,1.6-14.912,2.459l-2.5,1.968c5.837-.985,16.958-2.851,17.543-2.908a1.882,1.882,0,0,1,1.18.192c.145.1.13.131.092.218-.029.065-.07.142-.113.224a2.031,2.031,0,0,0-.32,1.273,1.848,1.848,0,0,0,1.177,1.378,3.185,3.185,0,0,0,1.3.246,5.4,5.4,0,0,0,.622-.038c.4-.046,4.508-.77,12.211-2.15l.443-.079a.762.762,0,0,0-.266-1.5Z" transform="translate(-23.237 -810.793)" fill="#9f9d9d"/>
    <path id="Path_946" data-name="Path 946" d="M56.993,30.827,50.516,37.6a5.831,5.831,0,0,0-1.456,2.673l9.2-7.233A17.219,17.219,0,0,0,65.2,34.725a7.149,7.149,0,0,0,4.534-1.256,6.28,6.28,0,0,1-3.294-4.3A60.134,60.134,0,0,0,73.247,31.2c6.108-4.077,9.3-12.9,9.3-12.9a6.791,6.791,0,0,1-1.807.246A7.7,7.7,0,0,1,75.9,16.711l7.98-1.738C86.537,9.529,86.791,0,86.791,0L62.529,21.579A17.973,17.973,0,0,0,56.993,30.827Z" fill="#9f9d9d"/>
  </g>
</svg>
